0.000000000000000000e+00 0.000000000000000000e+00
8.008008008008007939e-02 0.000000000000000000e+00
1.601601601601601588e-01 0.000000000000000000e+00
2.402402402402402382e-01 0.000000000000000000e+00
3.203203203203203175e-01 0.000000000000000000e+00
4.004004004004003692e-01 0.000000000000000000e+00
4.804804804804804763e-01 0.000000000000000000e+00
5.605605605605605835e-01 0.000000000000000000e+00
6.406406406406406351e-01 0.000000000000000000e+00
7.207207207207206867e-01 0.000000000000000000e+00
8.008008008008007383e-01 0.000000000000000000e+00
8.808808808808809010e-01 0.000000000000000000e+00
9.609609609609609526e-01 0.000000000000000000e+00
1.041041041041041115e+00 0.000000000000000000e+00
1.121121121121121167e+00 0.000000000000000000e+00
1.201201201201201219e+00 0.000000000000000000e+00
1.281281281281281270e+00 0.000000000000000000e+00
1.361361361361361322e+00 0.000000000000000000e+00
1.441441441441441373e+00 0.000000000000000000e+00
1.521521521521521425e+00 0.000000000000000000e+00
1.601601601601601477e+00 0.000000000000000000e+00
1.681681681681681750e+00 0.000000000000000000e+00
1.761761761761761802e+00 0.000000000000000000e+00
1.841841841841841854e+00 0.000000000000000000e+00
1.921921921921921905e+00 0.000000000000000000e+00
2.002002002002002179e+00 0.000000000000000000e+00
2.082082082082082231e+00 0.000000000000000000e+00
2.162162162162162282e+00 0.000000000000000000e+00
2.242242242242242334e+00 0.000000000000000000e+00
2.322322322322322385e+00 0.000000000000000000e+00
2.402402402402402437e+00 0.000000000000000000e+00
2.482482482482482489e+00 0.000000000000000000e+00
2.562562562562562540e+00 0.000000000000000000e+00
2.642642642642642592e+00 0.000000000000000000e+00
2.722722722722722644e+00 0.000000000000000000e+00
2.802802802802802695e+00 0.000000000000000000e+00
2.882882882882882747e+00 0.000000000000000000e+00
2.962962962962962798e+00 0.000000000000000000e+00
3.043043043043042850e+00 0.000000000000000000e+00
3.123123123123122902e+00 0.000000000000000000e+00
3.203203203203202953e+00 0.000000000000000000e+00
3.283283283283283449e+00 0.000000000000000000e+00
3.363363363363363501e+00 0.000000000000000000e+00
3.443443443443443552e+00 0.000000000000000000e+00
3.523523523523523604e+00 0.000000000000000000e+00
3.603603603603603656e+00 0.000000000000000000e+00
3.683683683683683707e+00 0.000000000000000000e+00
3.763763763763763759e+00 0.000000000000000000e+00
3.843843843843843811e+00 0.000000000000000000e+00
3.923923923923923862e+00 0.000000000000000000e+00
4.004004004004004358e+00 0.000000000000000000e+00
4.084084084084084409e+00 0.000000000000000000e+00
4.164164164164164461e+00 0.000000000000000000e+00
4.244244244244244513e+00 0.000000000000000000e+00
4.324324324324324564e+00 0.000000000000000000e+00
4.404404404404404616e+00 0.000000000000000000e+00
4.484484484484484668e+00 0.000000000000000000e+00
4.564564564564564719e+00 0.000000000000000000e+00
4.644644644644644771e+00 0.000000000000000000e+00
4.724724724724724823e+00 0.000000000000000000e+00
4.804804804804804874e+00 0.000000000000000000e+00
4.884884884884884926e+00 0.000000000000000000e+00
4.964964964964964977e+00 0.000000000000000000e+00
5.045045045045045029e+00 0.000000000000000000e+00
5.125125125125125081e+00 0.000000000000000000e+00
5.205205205205205132e+00 0.000000000000000000e+00
5.285285285285285184e+00 0.000000000000000000e+00
5.365365365365365236e+00 0.000000000000000000e+00
5.445445445445445287e+00 0.000000000000000000e+00
5.525525525525525339e+00 0.000000000000000000e+00
5.605605605605605390e+00 0.000000000000000000e+00
5.685685685685685442e+00 0.000000000000000000e+00
5.765765765765765494e+00 0.000000000000000000e+00
5.845845845845845545e+00 0.000000000000000000e+00
5.925925925925925597e+00 0.000000000000000000e+00
6.006006006006005649e+00 0.000000000000000000e+00
6.086086086086085700e+00 0.000000000000000000e+00
6.166166166166165752e+00 0.000000000000000000e+00
6.246246246246245803e+00 0.000000000000000000e+00
6.326326326326325855e+00 0.000000000000000000e+00
6.406406406406405907e+00 0.000000000000000000e+00
6.486486486486486847e+00 0.000000000000000000e+00
6.566566566566566898e+00 0.000000000000000000e+00
6.646646646646646950e+00 0.000000000000000000e+00
6.726726726726727001e+00 0.000000000000000000e+00
6.806806806806807053e+00 0.000000000000000000e+00
6.886886886886887105e+00 0.000000000000000000e+00
6.966966966966967156e+00 0.000000000000000000e+00
7.047047047047047208e+00 0.000000000000000000e+00
7.127127127127127260e+00 0.000000000000000000e+00
7.207207207207207311e+00 0.000000000000000000e+00
7.287287287287287363e+00 0.000000000000000000e+00
7.367367367367367414e+00 0.000000000000000000e+00
7.447447447447447466e+00 0.000000000000000000e+00
7.527527527527527518e+00 0.000000000000000000e+00
7.607607607607607569e+00 0.000000000000000000e+00
7.687687687687687621e+00 0.000000000000000000e+00
7.767767767767767673e+00 0.000000000000000000e+00
7.847847847847847724e+00 0.000000000000000000e+00
7.927927927927927776e+00 0.000000000000000000e+00
8.008008008008008716e+00 0.000000000000000000e+00
8.088088088088088767e+00 0.000000000000000000e+00
8.168168168168168819e+00 0.000000000000000000e+00
8.248248248248248871e+00 0.000000000000000000e+00
8.328328328328328922e+00 0.000000000000000000e+00
8.408408408408408974e+00 0.000000000000000000e+00
8.488488488488489025e+00 0.000000000000000000e+00
8.568568568568569077e+00 0.000000000000000000e+00
8.648648648648649129e+00 0.000000000000000000e+00
8.728728728728729180e+00 0.000000000000000000e+00
8.808808808808809232e+00 0.000000000000000000e+00
8.888888888888889284e+00 0.000000000000000000e+00
8.968968968968969335e+00 0.000000000000000000e+00
9.049049049049049387e+00 0.000000000000000000e+00
9.129129129129129439e+00 0.000000000000000000e+00
9.209209209209209490e+00 0.000000000000000000e+00
9.289289289289289542e+00 0.000000000000000000e+00
9.369369369369369593e+00 0.000000000000000000e+00
9.449449449449449645e+00 0.000000000000000000e+00
9.529529529529529697e+00 0.000000000000000000e+00
9.609609609609609748e+00 0.000000000000000000e+00
9.689689689689689800e+00 0.000000000000000000e+00
9.769769769769769852e+00 0.000000000000000000e+00
9.849849849849849903e+00 0.000000000000000000e+00
9.929929929929929955e+00 0.000000000000000000e+00
1.001001001001001001e+01 0.000000000000000000e+00
1.009009009009009006e+01 0.000000000000000000e+00
1.017017017017017011e+01 0.000000000000000000e+00
1.025025025025025016e+01 0.000000000000000000e+00
1.033033033033033021e+01 0.000000000000000000e+00
1.041041041041041026e+01 0.000000000000000000e+00
1.049049049049049032e+01 0.000000000000000000e+00
1.057057057057057037e+01 0.000000000000000000e+00
1.065065065065065042e+01 0.000000000000000000e+00
1.073073073073073047e+01 0.000000000000000000e+00
1.081081081081081052e+01 0.000000000000000000e+00
1.089089089089089057e+01 0.000000000000000000e+00
1.097097097097097063e+01 0.000000000000000000e+00
1.105105105105105068e+01 0.000000000000000000e+00
1.113113113113113073e+01 0.000000000000000000e+00
1.121121121121121078e+01 0.000000000000000000e+00
1.129129129129129083e+01 0.000000000000000000e+00
1.137137137137137088e+01 0.000000000000000000e+00
1.145145145145145094e+01 0.000000000000000000e+00
1.153153153153153099e+01 0.000000000000000000e+00
1.161161161161161104e+01 0.000000000000000000e+00
1.169169169169169109e+01 0.000000000000000000e+00
1.177177177177177114e+01 0.000000000000000000e+00
1.185185185185185119e+01 0.000000000000000000e+00
1.193193193193193125e+01 0.000000000000000000e+00
1.201201201201201130e+01 0.000000000000000000e+00
1.209209209209209135e+01 0.000000000000000000e+00
1.217217217217217140e+01 0.000000000000000000e+00
1.225225225225225145e+01 0.000000000000000000e+00
1.233233233233233150e+01 0.000000000000000000e+00
1.241241241241241156e+01 0.000000000000000000e+00
1.249249249249249161e+01 0.000000000000000000e+00
1.257257257257257166e+01 0.000000000000000000e+00
1.265265265265265171e+01 0.000000000000000000e+00
1.273273273273273176e+01 0.000000000000000000e+00
1.281281281281281181e+01 0.000000000000000000e+00
1.289289289289289364e+01 0.000000000000000000e+00
1.297297297297297369e+01 0.000000000000000000e+00
1.305305305305305374e+01 0.000000000000000000e+00
1.313313313313313380e+01 0.000000000000000000e+00
1.321321321321321385e+01 0.000000000000000000e+00
1.329329329329329390e+01 0.000000000000000000e+00
1.337337337337337395e+01 3.641762816152286690e-318
1.345345345345345400e+01 1.070209796533802248e-313
1.353353353353353405e+01 2.926092681139036772e-309
1.361361361361361411e+01 7.442495221641447176e-305
1.369369369369369416e+01 1.761004145322495398e-300
1.377377377377377421e+01 3.876265530156772140e-296
1.385385385385385426e+01 7.937394892236085338e-292
1.393393393393393431e+01 1.512006933443484714e-287
1.401401401401401436e+01 2.679420681002872250e-283
1.409409409409409442e+01 4.417121595411935684e-279
1.417417417417417447e+01 6.774061443791725774e-275
1.425425425425425452e+01 9.664296276093309845e-271
1.433433433433433457e+01 1.282633759883530568e-266
1.441441441441441462e+01 1.583603398128669310e-262
1.449449449449449467e+01 1.818869374350562387e-258
1.457457457457457473e+01 1.943425617455526309e-254
1.465465465465465478e+01 1.931726612578130465e-250
1.473473473473473483e+01 1.786219104003503574e-246
1.481481481481481488e+01 1.536509055308333619e-242
1.489489489489489493e+01 1.229551843825726456e-238
1.497497497497497498e+01 9.153135549259205267e-235
1.505505505505505504e+01 6.338759428764733471e-231
1.513513513513513509e+01 4.083663725832061965e-227
1.521521521521521514e+01 2.447411533817074681e-223
1.529529529529529519e+01 1.364505716810412240e-219
1.537537537537537524e+01 7.077095300753045400e-216
1.545545545545545529e+01 3.414648899825480777e-212
1.553553553553553535e+01 1.532669072997161376e-208
1.561561561561561540e+01 6.399736013892188588e-205
1.569569569569569545e+01 2.485919453508373537e-201
1.577577577577577550e+01 8.983040818528734582e-198
1.585585585585585555e+01 3.019750212136201191e-194
1.593593593593593560e+01 9.443434991018633406e-191
1.601601601601601743e+01 2.747263376485777571e-187
1.609609609609609748e+01 7.435016309071235408e-184
1.617617617617617753e+01 1.871866541169877446e-180
1.625625625625625759e+01 4.384087008106328636e-177
1.633633633633633764e+01 9.552010145877095749e-174
1.641641641641641769e+01 1.936072929445514191e-170
1.649649649649649774e+01 3.650564089226439972e-167
1.657657657657657779e+01 6.403384334285857315e-164
1.665665665665665784e+01 1.044889796406051828e-160
1.673673673673673790e+01 1.586144444457237716e-157
1.681681681681681795e+01 2.239888024351355959e-154
1.689689689689689800e+01 2.942532093786835320e-151
1.697697697697697805e+01 3.596064195992106164e-148
1.705705705705705810e+01 4.088321030521422702e-145
1.713713713713713815e+01 4.323882393752075127e-142
1.721721721721721821e+01 4.254162570258759761e-139
1.729729729729729826e+01 3.893728075075873382e-136
1.737737737737737831e+01 3.315343119539264046e-133
1.745745745745745836e+01 2.626048077442057820e-130
1.753753753753753841e+01 1.935032175167830703e-127
1.761761761761761846e+01 1.326432137961669000e-124
1.769769769769769852e+01 8.458497163977211846e-122
1.777777777777777857e+01 5.017792608512304209e-119
1.785785785785785862e+01 2.769131207112606708e-116
1.793793793793793867e+01 1.421627080508315292e-113
1.801801801801801872e+01 6.789521511294064298e-111
1.809809809809809877e+01 3.016504494295231595e-108
1.817817817817817883e+01 1.246752110175162348e-105
1.825825825825825888e+01 4.793663827729026307e-103
1.833833833833833893e+01 1.714613993985072933e-100
1.841841841841841898e+01 5.705273660023865556e-98
1.849849849849849903e+01 1.766029381214956826e-95
1.857857857857857908e+01 5.085465304497000586e-93
1.865865865865865914e+01 1.362306390720539089e-90
1.873873873873873919e+01 3.394925273542221800e-88
1.881881881881881924e+01 7.870403021808094774e-86
1.889889889889889929e+01 1.697364253611521653e-83
1.897897897897897934e+01 3.405371198972127342e-81
1.905905905905905939e+01 6.355726388738790658e-79
1.913913913913913944e+01 1.103512492464510903e-76
1.921921921921921950e+01 1.782381404120974553e-74
1.929929929929929955e+01 2.678152839015203365e-72
1.937937937937937960e+01 3.743530715358332299e-70
1.945945945945945965e+01 4.867867749374695570e-68
1.953953953953953970e+01 5.888537808636817597e-66
1.961961961961961975e+01 6.626550197072777299e-64
1.969969969969969981e+01 6.937114193894629989e-62
1.977977977977977986e+01 6.755873704945553401e-60
1.985985985985985991e+01 6.120621563513478543e-58
1.993993993993993996e+01 5.158469427456079262e-56
2.002002002002002001e+01 4.044431843282420545e-54
2.010010010010010006e+01 2.949887872192423484e-52
2.018018018018018012e+01 2.001542530677198036e-50
2.026026026026026017e+01 1.263384267504522377e-48
2.034034034034034022e+01 7.418522757082967146e-47
2.042042042042042027e+01 4.052385280866935912e-45
2.050050050050050032e+01 2.059279766618144293e-43
2.058058058058058037e+01 9.734895696407511403e-42
2.066066066066066043e+01 4.281131620677715531e-40
2.074074074074074048e+01 1.751447746035520150e-38
2.082082082082082053e+01 6.665720765140926111e-37
2.090090090090090058e+01 2.359980288477557865e-35
2.098098098098098063e+01 7.772862079682371067e-34
2.106106106106106068e+01 2.381578357621347482e-32
2.114114114114114074e+01 6.788285750912269717e-31
2.122122122122122079e+01 1.799975870327497751e-29
2.130130130130130084e+01 4.440016438288089916e-28
2.138138138138138089e+01 1.018858328787632534e-26
2.146146146146146094e+01 2.174975399586143163e-25
2.154154154154154099e+01 4.319228951198224672e-24
2.162162162162162105e+01 7.979385165170662081e-23
2.170170170170170110e+01 1.371336260489781252e-21
2.178178178178178115e+01 2.192450604067371242e-20
2.186186186186186120e+01 3.260821324812755951e-19
2.194194194194194125e+01 4.511651180354076800e-18
2.202202202202202130e+01 5.807047173143688144e-17
2.210210210210210136e+01 6.953228803014638854e-16
2.218218218218218141e+01 7.745135395120281870e-15
2.226226226226226146e+01 8.025698396631775079e-14
2.234234234234234151e+01 7.736561515197161296e-13
2.242242242242242156e+01 6.937842848296194821e-12
2.250250250250250161e+01 5.787783276568261007e-11
2.258258258258258167e+01 4.491706702313825255e-10
2.266266266266266172e+01 3.242812562749454184e-09
2.274274274274274177e+01 2.177928563361422232e-08
2.282282282282282182e+01 1.360744982805799662e-07
2.290290290290290187e+01 7.908992795028281388e-07
2.298298298298298192e+01 4.276386454777802861e-06
2.306306306306306197e+01 2.151017966182608849e-05
2.314314314314314203e+01 1.006520112582578601e-04
2.322322322322322208e+01 4.381392942801771453e-04
2.330330330330330213e+01 1.774243727044545228e-03
2.338338338338338218e+01 6.683834376123036838e-03
2.346346346346346223e+01 2.342337158346402895e-02
2.354354354354354228e+01 7.636326054818610987e-02
2.362362362362362234e+01 2.315958891114519858e-01
2.370370370370370239e+01 6.534141816980146844e-01
2.378378378378378244e+01 1.714974209087101409e+00
2.386386386386386249e+01 4.187337412693751482e+00
2.394394394394394254e+01 9.511075930743851714e+00
2.402402402402402259e+01 2.009706639951533091e+01
2.410410410410410265e+01 3.950454036285682946e+01
2.418418418418418270e+01 7.223915978098422386e+01
2.426426426426426275e+01 1.228880594054624851e+02
2.434434434434434280e+01 1.944724176557730289e+02
2.442442442442442285e+01 2.862975738512231487e+02
2.450450450450450290e+01 3.920926030745124535e+02
2.458458458458458296e+01 4.995407919802704555e+02
2.466466466466466301e+01 5.920584637755849826e+02
2.474474474474474306e+01 6.527840840101420099e+02
2.482482482482482311e+01 6.695543674917336148e+02
2.490490490490490316e+01 6.388714264066662736e+02
2.498498498498498321e+01 5.670905487252954345e+02
2.506506506506506327e+01 4.682768421873510647e+02
2.514514514514514332e+01 3.597197475553013533e+02
2.522522522522522337e+01 2.570615998275270613e+02
2.530530530530530342e+01 1.708918925087266132e+02
2.538538538538538347e+01 1.056858974746367323e+02
2.546546546546546352e+01 6.080285153885103711e+01
2.554554554554554358e+01 3.254184574540671093e+01
2.562562562562562363e+01 1.620211625514856735e+01
2.570570570570570723e+01 7.504342258419043787e+00
2.578578578578578728e+01 3.233440319173654487e+00
2.586586586586586733e+01 1.296069805115857232e+00
2.594594594594594739e+01 4.832849416632484796e-01
2.602602602602602744e+01 1.676445584339596173e-01
2.610610610610610749e+01 5.409871957319838803e-02
2.618618618618618754e+01 1.624036696665852667e-02
2.626626626626626759e+01 4.535404405719765768e-03
2.634634634634634764e+01 1.178277335704475863e-03
2.642642642642642770e+01 2.847674575379958864e-04
2.650650650650650775e+01 6.402425333147387660e-05
2.658658658658658780e+01 1.339091143941378202e-05
2.666666666666666785e+01 2.605501468289977186e-06
2.674674674674674790e+01 4.717686420906399823e-07
2.682682682682682795e+01 8.037503557455987646e-08
2.690690690690690801e+01 1.761666504302698800e-08
2.698698698698698806e+01 2.765153867802805658e-08
2.706706706706706811e+01 1.202026639242847901e-07
2.714714714714714816e+01 5.181002402606071406e-07
2.722722722722722821e+01 2.081432488652824594e-06
2.730730730730730826e+01 7.779410211100691347e-06
2.738738738738738832e+01 2.704849204252934988e-05
2.746746746746746837e+01 8.748846397039427658e-05
2.754754754754754842e+01 2.632508930005792737e-04
2.762762762762762847e+01 7.368858916178231419e-04
2.770770770770770852e+01 1.918854112856532282e-03
2.778778778778778857e+01 4.648309104998949413e-03
2.786786786786786863e+01 1.047512876638814761e-02
2.794794794794794868e+01 2.196013812898122905e-02
2.802802802802802873e+01 4.282743768846747345e-02
2.810810810810810878e+01 7.769989706209214086e-02
2.818818818818818883e+01 1.311384729434097729e-01
2.826826826826826888e+01 2.058975258872858816e-01
2.834834834834834894e+01 3.007346442319768220e-01
2.842842842842842899e+01 4.086270584699160380e-01
2.850850850850850904e+01 5.165140134317690590e-01
2.858858858858858909e+01 6.073631283456842889e-01
2.866866866866866914e+01 6.643945557870346574e-01
2.874874874874874919e+01 6.761063797838096079e-01
2.882882882882882924e+01 6.400521047658701557e-01
2.890890890890890930e+01 5.636726375551035506e-01
2.898898898898898935e+01 4.617957202542569695e-01
2.906906906906906940e+01 3.519526028109311588e-01
2.914914914914914945e+01 2.495340331640458209e-01
2.922922922922922950e+01 1.645836607868121360e-01
2.930930930930930955e+01 1.009845598886601609e-01
2.938938938938938961e+01 5.764140569037586731e-02
2.946946946946946966e+01 3.060733216755438454e-02
2.954954954954954971e+01 1.511916189142385562e-02
2.962962962962962976e+01 6.947703642187325404e-03
2.970970970970970981e+01 2.970066546111867038e-03
2.978978978978978986e+01 1.181142787014383393e-03
2.986986986986986992e+01 4.369683194595516207e-04
2.994994994994994997e+01 1.503864916583265118e-04
3.003003003003003002e+01 4.814808643255538147e-05
3.011011011011011007e+01 1.434037678294499634e-05
3.019019019019019012e+01 3.973318873592628184e-06
3.027027027027027017e+01 1.024135935782326071e-06
3.035035035035035023e+01 2.455687601888684914e-07
3.043043043043043028e+01 5.477721614827452440e-08
3.051051051051051033e+01 1.136679751524929142e-08
3.059059059059059038e+01 2.194257631391787855e-09
3.067067067067067043e+01 3.940473747092123998e-10
3.075075075075075048e+01 6.582950455845164718e-11
3.083083083083083054e+01 1.023066965920059613e-11
3.091091091091091059e+01 1.479104520263346531e-12
3.099099099099099064e+01 1.989321580424408624e-13
3.107107107107107069e+01 2.488985982459642285e-14
3.115115115115115074e+01 2.897018274210458507e-15
3.123123123123123079e+01 3.136832622167370148e-16
3.131131131131131085e+01 3.159677693397620193e-17
3.139139139139139090e+01 2.960775985841089828e-18
3.147147147147147095e+01 2.580950303818256084e-19
3.155155155155155100e+01 2.092979921706458220e-20
3.163163163163163105e+01 1.578926119285459246e-21
3.171171171171171110e+01 1.108076854004632037e-22
3.179179179179179116e+01 7.234179565835988064e-24
3.187187187187187121e+01 4.393594916311825790e-25
3.195195195195195126e+01 2.482344591072734937e-26
3.203203203203203486e+01 1.304714387560062035e-27
3.211211211211211491e+01 6.379404810265879581e-29
3.219219219219219497e+01 2.901724647611200911e-30
3.227227227227227502e+01 1.227845048017751519e-31
3.235235235235235507e+01 4.833283330450482719e-33
3.243243243243243512e+01 1.769914442860122731e-34
3.251251251251251517e+01 6.029393369851161268e-36
3.259259259259259522e+01 1.910760663910172992e-37
3.267267267267267528e+01 5.633136723206827521e-39
3.275275275275275533e+01 1.544918662935897079e-40
3.283283283283283538e+01 3.941597502525136956e-42
3.291291291291291543e+01 9.355139238654254122e-44
3.299299299299299548e+01 2.065568322406001168e-45
3.307307307307307553e+01 4.242679256393750229e-47
3.315315315315315559e+01 8.106850493534472259e-49
3.323323323323323564e+01 1.441038069468202124e-50
3.331331331331331569e+01 2.382923343574524843e-52
3.339339339339339574e+01 3.665692377253375859e-54
3.347347347347347579e+01 5.245818837210955810e-56
3.355355355355355584e+01 6.983640699650359504e-58
3.363363363363363590e+01 8.648918675466889326e-60
3.371371371371371595e+01 9.964443910819222560e-62
3.379379379379379600e+01 1.067961624837463699e-63
3.387387387387387605e+01 1.064803708763512191e-65
3.395395395395395610e+01 9.876311746552137679e-68
3.403403403403403615e+01 8.521800287078823229e-70
3.411411411411411621e+01 6.840364450362740583e-72
3.419419419419419626e+01 5.107853794391352652e-74
3.427427427427427631e+01 3.548207431923561292e-76
3.435435435435435636e+01 2.292930398162477280e-78
3.443443443443443641e+01 1.378427947541615769e-80
3.451451451451451646e+01 7.708832244372267415e-83
3.459459459459459651e+01 4.010554728121122261e-85
3.467467467467467657e+01 1.941027223334405393e-87
3.475475475475475662e+01 8.739171557794687051e-90
3.483483483483483667e+01 3.737365942876181773e-92
3.491491491491491672e+01 2.080744660058648101e-91
3.499499499499499677e+01 5.220918367258104431e-89
3.507507507507507682e+01 1.219506488466204785e-86
3.515515515515515688e+01 2.649919368119414798e-84
3.523523523523523693e+01 5.356640870813704595e-82
3.531531531531531698e+01 1.007311353654954604e-79
3.539539539539539703e+01 1.762163715850038486e-77
3.547547547547547708e+01 2.867742200756600744e-75
3.555555555555555713e+01 4.341554800596711585e-73
3.563563563563563719e+01 6.114511896073213643e-71
3.571571571571571724e+01 8.011053434095576361e-69
3.579579579579579729e+01 9.764022913451155679e-67
3.587587587587587734e+01 1.107080696975280712e-64
3.595595595595595739e+01 1.167726387540268761e-62
3.603603603603603744e+01 1.145814297648010670e-60
3.611611611611611750e+01 1.045920577030753021e-58
3.619619619619619755e+01 8.881667374503481811e-57
3.627627627627627760e+01 7.016194645911414750e-55
3.635635635635635765e+01 5.156085145122679274e-53
3.643643643643643770e+01 3.524924823916905638e-51
3.651651651651651775e+01 2.241769546445979974e-49
3.659659659659659781e+01 1.326304973670553274e-47
3.667667667667667786e+01 7.299736078297465053e-46
3.675675675675675791e+01 3.737508989742416676e-44
3.683683683683683796e+01 1.780199441830154298e-42
3.691691691691691801e+01 7.887990925224475885e-41
3.699699699699699806e+01 3.251437956191638313e-39
3.707707707707707812e+01 1.246797340816702510e-37
3.715715715715715817e+01 4.447619140963673583e-36
3.723723723723723822e+01 1.475946586848605103e-34
3.731731731731731827e+01 4.556433315627673101e-33
3.739739739739739832e+01 1.308551210212610187e-31
3.747747747747747837e+01 3.495970468725829338e-30
3.755755755755755843e+01 8.688726252032027983e-29
3.763763763763763848e+01 2.008888352751274251e-27
3.771771771771771853e+01 4.320826364714427026e-26
3.779779779779779858e+01 8.645480884166294100e-25
3.787787787787787863e+01 1.609247424217485163e-23
3.795795795795795868e+01 2.786556271725967336e-22
3.803803803803803874e+01 4.488736787033135159e-21
3.811811811811811879e+01 6.726540928401916223e-20
3.819819819819819884e+01 9.377147891303568112e-19
3.827827827827827889e+01 1.216076984694997735e-17
3.835835835835835894e+01 1.467110076523037358e-16
3.843843843843843899e+01 1.646552785377048489e-15
3.851851851851851904e+01 1.719095260863634757e-14
3.859859859859859910e+01 1.669688882221392855e-13
3.867867867867867915e+01 1.508629149615730297e-12
3.875875875875875920e+01 1.268062797893512587e-11
3.883883883883883925e+01 9.915402658389297693e-11
3.891891891891891930e+01 7.212590513404174963e-10
3.899899899899899935e+01 4.880715852624432735e-09
3.907907907907907941e+01 3.072466099926185708e-08
3.915915915915915946e+01 1.799293463659559862e-07
3.923923923923923951e+01 9.802305461127466552e-07
3.931931931931931956e+01 4.967819281642809132e-06
3.939939939939939961e+01 2.342149823719114695e-05
3.947947947947947966e+01 1.027247005513719864e-04
3.955955955955955972e+01 4.191277560976351723e-04
3.963963963963963977e+01 1.590850203267440413e-03
3.971971971971971982e+01 5.617246475963913466e-03
3.979979979979979987e+01 1.845138625398966628e-02
3.987987987987987992e+01 5.638269716998109415e-02
3.995995995995995997e+01 1.602780394730913827e-01
4.004004004004004003e+01 4.238513032298175109e-01
4.012012012012012008e+01 1.042711951322750075e+00
4.020020020020020013e+01 2.386308054055366945e+00
4.028028028028028018e+01 5.080424361707498448e+00
4.036036036036036023e+01 1.006201128140027734e+01
4.044044044044044028e+01 1.853877088242134974e+01
4.052052052052052034e+01 3.177520795230451256e+01
4.060060060060060039e+01 5.066490037323746520e+01
4.068068068068068044e+01 7.515144087250777716e+01
4.076076076076076049e+01 1.037000002802503786e+02
4.084084084084084054e+01 1.331163897481532103e+02
4.092092092092092059e+01 1.589628464452698040e+02
4.100100100100100065e+01 1.765920134059240070e+02
4.108108108108108070e+01 1.824978753397340938e+02
4.116116116116116075e+01 1.754510188124930892e+02
4.124124124124124080e+01 1.569153042800713536e+02
4.132132132132132085e+01 1.305527545089252044e+02
4.140140140140140090e+01 1.010457618267490858e+02
4.148148148148148096e+01 7.275477349180752640e+01
4.156156156156156101e+01 4.873222161168152411e+01
4.164164164164164106e+01 3.036562715537227675e+01
4.172172172172172111e+01 1.760190315246707726e+01
4.180180180180180116e+01 9.491794481175332976e+00
4.188188188188188121e+01 4.761550036142865316e+00
4.196196196196196126e+01 2.222080078427470795e+00
4.204204204204204132e+01 9.646780268000079150e-01
4.212212212212212137e+01 3.895977087677345296e-01
4.220220220220220142e+01 1.463732544564631533e-01
4.228228228228228147e+01 5.115856937010110350e-02
4.236236236236236152e+01 1.663360485853389650e-02
4.244244244244244157e+01 5.031131824446751638e-03
4.252252252252252163e+01 1.415651457208945592e-03
4.260260260260260168e+01 3.705598066250804915e-04
4.268268268268268173e+01 9.023429073037119125e-05
4.276276276276276178e+01 2.044072211054357214e-05
4.284284284284284183e+01 4.307568439521505083e-06
4.292292292292292188e+01 8.444607443859923101e-07
4.300300300300300194e+01 1.540061529362841520e-07
4.308308308308308199e+01 2.612811062101052284e-08
4.316316316316316204e+01 4.123720930147766004e-09
4.324324324324324209e+01 6.054549791971331914e-10
4.332332332332332214e+01 8.269624128195697524e-11
4.340340340340340219e+01 1.050753905377297488e-11
4.348348348348348225e+01 1.242017120669881098e-12
4.356356356356356230e+01 1.365731980764591605e-13
4.364364364364364235e+01 1.397058857551327229e-14
4.372372372372372240e+01 1.329459936323279975e-15
4.380380380380380245e+01 1.176920513401453502e-16
4.388388388388388250e+01 9.692377884823546143e-18
4.396396396396396256e+01 7.425485777845831143e-19
4.404404404404404261e+01 5.292132758879323028e-20
4.412412412412412266e+01 3.508713576842792135e-21
4.420420420420420271e+01 2.164095547397621809e-22
4.428428428428428276e+01 1.241698832473915604e-23
4.436436436436436281e+01 6.627770187899372574e-25
4.444444444444444287e+01 3.291015569129356113e-26
4.452452452452452292e+01 1.520210611367175582e-27
4.460460460460460297e+01 6.532642905250814861e-29
4.468468468468468302e+01 2.611521186693671888e-30
4.476476476476476307e+01 9.871741415495480254e-32
4.484484484484484312e+01 5.190784582054265215e-32
4.492492492492492318e+01 1.369718935255019935e-30
4.500500500500500323e+01 3.594461899548284227e-29
4.508508508508508328e+01 8.775701533056842098e-28
4.516516516516516333e+01 1.993155443395565476e-26
4.524524524524524338e+01 4.211257748711945294e-25
4.532532532532532343e+01 8.277397343262740242e-24
4.540540540540540349e+01 1.513516328571759954e-22
4.548548548548548354e+01 2.574493177469478771e-21
4.556556556556556359e+01 4.073875072404045471e-20
4.564564564564564364e+01 5.997013077463549122e-19
4.572572572572572369e+01 8.212466517801926880e-18
4.580580580580580374e+01 1.046221294252156048e-16
4.588588588588588379e+01 1.239894762817408291e-15
4.596596596596596385e+01 1.366965088767412547e-14
4.604604604604604390e+01 1.401978481705958606e-13
4.612612612612612395e+01 1.337631846070530082e-12
4.620620620620620400e+01 1.187252735491395709e-11
4.628628628628628405e+01 9.803047006828530691e-11
4.636636636636636410e+01 7.529919243995730601e-10
4.644644644644644416e+01 5.380602129030137749e-09
4.652652652652652421e+01 3.576702076916663614e-08
4.660660660660660426e+01 2.211800652338460736e-07
4.668668668668668431e+01 1.272390810596672878e-06
4.676676676676676436e+01 6.809361535337890223e-06
4.684684684684684441e+01 3.390030375399370944e-05
4.692692692692692447e+01 1.570045047095706893e-04
4.700700700700700452e+01 6.764441790835935527e-04
4.708708708708708457e+01 2.711209901422741153e-03
4.716716716716716462e+01 1.010894065467761276e-02
4.724724724724724467e+01 3.506384027008845050e-02
4.732732732732732472e+01 1.131422050942856722e-01
4.740740740740740478e+01 3.396261526053401258e-01
4.748748748748748483e+01 9.483943086410251411e-01
4.756756756756756488e+01 2.463701455259669881e+00
4.764764764764764493e+01 5.953859037509990237e+00
4.772772772772772498e+01 1.338506065151494973e+01
4.780780780780780503e+01 2.799325922782817244e+01
4.788788788788788509e+01 5.446254295989362504e+01
4.796796796796796514e+01 9.857202813069443437e+01
4.804804804804804519e+01 1.659666378937807565e+02
4.812812812812812524e+01 2.599556298621889141e+02
4.820820820820820529e+01 3.787816972337165566e+02
4.828828828828828534e+01 5.134404390877371043e+02
4.836836836836836540e+01 6.474444073806316737e+02
4.844844844844844545e+01 7.594972812879773301e+02
4.852852852852852550e+01 8.288220386052058757e+02
4.860860860860860555e+01 8.414100300000000061e+02
4.868868868868868560e+01 7.946308213234813138e+02
4.876876876876876565e+01 6.981270319253825392e+02
4.884884884884884571e+01 5.705777474330038785e+02
4.892892892892892576e+01 4.338169662778298630e+02
4.900900900900900581e+01 3.068382965279084260e+02
4.908908908908908586e+01 2.018942362258633807e+02
4.916916916916916591e+01 1.235804035554536426e+02
4.924924924924924596e+01 7.036985456695008168e+01
4.932932932932932601e+01 3.727651102834674646e+01
4.940940940940940607e+01 1.836948807213052959e+01
4.948948948948948612e+01 8.421417378857643854e+00
4.956956956956956617e+01 3.592571880673551821e+00
4.964964964964964622e+01 1.428919246176546975e+00
4.972972972972972627e+01 5.381857541037577963e-01
4.980980980980980632e+01 2.146696600194181181e-01
4.988988988988988638e+01 1.453962798755920605e-01
4.996996996996996643e+01 2.269113540958423991e-01
5.005005005005004648e+01 4.713569124666455168e-01
5.013013013013012653e+01 9.667779453994495009e-01
5.021021021021020658e+01 1.858975256535709386e+00
5.029029029029028663e+01 3.328522662285178679e+00
5.037037037037036669e+01 5.544890132498443869e+00
5.045045045045044674e+01 8.593145903777017480e+00
5.053053053053052679e+01 1.238863789839174778e+01
5.061061061061060684e+01 1.661523010557949931e+01
5.069069069069068689e+01 2.073005721446751792e+01
5.077077077077076694e+01 2.406057323012148075e+01
5.085085085085084700e+01 2.597902013599463444e+01
5.093093093093092705e+01 2.609461479900354064e+01
5.101101101101100710e+01 2.438317980699643073e+01
5.109109109109108715e+01 2.119537571385432884e+01
5.117117117117116720e+01 1.713970033758458555e+01
5.125125125125124725e+01 1.289367315893710320e+01
5.133133133133133441e+01 9.023217308611251042e+00
5.141141141141141446e+01 5.874318684685230885e+00
5.149149149149149451e+01 3.557663904112757347e+00
5.157157157157157457e+01 2.004396605586929336e+00
5.165165165165165462e+01 1.050542742597732726e+00
5.173173173173173467e+01 5.122183376605795591e-01
5.181181181181181472e+01 2.323313655259657828e-01
5.189189189189189477e+01 9.803291009200577888e-02
5.197197197197197482e+01 3.848108172182156811e-02
5.205205205205205488e+01 1.405186523124531475e-02
5.213213213213213493e+01 4.773445926092865881e-03
5.221221221221221498e+01 1.508486284028993322e-03
5.229229229229229503e+01 4.434677591057461046e-04
5.237237237237237508e+01 1.212813616284878358e-04
5.245245245245245513e+01 3.085584214995369022e-05
5.253253253253253519e+01 7.302844802808411931e-06
5.261261261261261524e+01 1.607896410208980384e-06
5.269269269269269529e+01 3.293331037339378275e-07
5.277277277277277534e+01 6.275148904484529011e-08
5.285285285285285539e+01 1.112305312782383138e-08
5.293293293293293544e+01 1.834151961394554717e-09
5.301301301301301550e+01 2.813571426023684474e-10
5.309309309309309555e+01 4.015058728116549623e-11
5.317317317317317560e+01 5.330122453615718450e-12
5.325325325325325565e+01 6.582544416517734640e-13
5.333333333333333570e+01 7.562436431647916279e-14
5.341341341341341575e+01 8.082412340736969532e-15
5.349349349349349581e+01 8.035845833224285118e-16
5.357357357357357586e+01 7.432476018841055115e-17
5.365365365365365591e+01 6.395091521314069745e-18
5.373373373373373596e+01 5.118837452038116751e-19
5.381381381381381601e+01 3.811599318808531710e-20
5.389389389389389606e+01 2.640307258766673375e-21
5.397397397397397611e+01 1.701425846297237440e-22
5.405405405405405617e+01 1.019959457384285392e-23
5.413413413413413622e+01 5.688059356821670913e-25
5.421421421421421627e+01 2.950914710952323557e-26
5.429429429429429632e+01 1.424165701387569960e-27
5.437437437437437637e+01 6.394045381676281935e-29
5.445445445445445642e+01 2.670559346675502798e-30
5.453453453453453648e+01 1.037624171062836855e-31
5.461461461461461653e+01 3.750500722476863956e-33
5.469469469469469658e+01 1.261100663449031291e-34
5.477477477477477663e+01 3.944769049173462928e-36
5.485485485485485668e+01 1.147901800518271407e-37
5.493493493493493673e+01 3.107414724713744493e-39
5.501501501501501679e+01 7.825374343661263963e-41
5.509509509509509684e+01 1.834176268418261556e-42
5.517517517517517689e+01 8.715391532889773531e-44
5.525525525525525694e+01 2.243181425781511074e-42
5.533533533533533699e+01 9.910078966700600830e-41
5.541541541541541704e+01 4.074345695982871478e-39
5.549549549549549710e+01 1.558296260873546731e-37
5.557557557557557715e+01 5.544386655234852795e-36
5.565565565565565720e+01 1.835136265370351791e-34
5.573573573573573725e+01 5.650598540924541197e-33
5.581581581581581730e+01 1.618571598607162487e-31
5.589589589589589735e+01 4.313012383758136980e-30
5.597597597597597741e+01 1.069155370796904902e-28
5.605605605605605746e+01 2.465541210123574579e-27
5.613613613613613751e+01 5.289261476682142156e-26
5.621621621621621756e+01 1.055575095879128234e-24
5.629629629629629761e+01 1.959722418739992089e-23
5.637637637637637766e+01 3.384630888392474473e-22
5.645645645645645772e+01 5.438002380397023322e-21
5.653653653653653777e+01 8.127908396284327495e-20
5.661661661661661782e+01 1.130132942656285558e-18
5.669669669669669787e+01 1.461812246272880267e-17
5.677677677677677792e+01 1.758996536601608192e-16
5.685685685685685797e+01 1.969018062160269309e-15
5.693693693693693803e+01 2.050433755497877989e-14
5.701701701701701808e+01 1.986337825442030246e-13
5.709709709709709813e+01 1.790077401962732275e-12
5.717717717717717818e+01 1.500727477773540516e-11
5.725725725725725823e+01 1.170423911908131265e-10
5.733733733733733828e+01 8.491723890479175673e-10
5.741741741741741833e+01 5.731388796797069013e-09
5.749749749749749839e+01 3.598613488376310012e-08
5.757757757757757844e+01 2.101947495718995200e-07
5.765765765765765849e+01 1.142141339518411238e-06
5.773773773773773854e+01 5.773367000281016949e-06
5.781781781781781859e+01 2.714874805563088892e-05
5.789789789789789864e+01 1.187631686087443721e-04
5.797797797797797870e+01 4.833092110324254927e-04
5.805805805805805875e+01 1.829699187888008706e-03
5.813813813813813880e+01 6.443853313688290008e-03
5.821821821821821885e+01 2.111168625993511613e-02
5.829829829829829890e+01 6.434451444012638521e-02
5.837837837837837895e+01 1.824363857365254304e-01
5.845845845845845901e+01 4.811967870036838457e-01
5.853853853853853906e+01 1.180715610188842968e+00
5.861861861861861911e+01 2.695126898115433711e+00
5.869869869869869916e+01 5.723009396899953138e+00
5.877877877877877921e+01 1.130527228563475894e+01
5.885885885885885926e+01 2.077537739049015642e+01
5.893893893893893932e+01 3.551633499526880655e+01
5.901901901901901937e+01 5.648312191678076744e+01
5.909909909909909942e+01 8.356425954417551338e+01
5.917917917917917947e+01 1.150095152208981233e+02
5.925925925925925952e+01 1.472510172119182812e+02
5.933933933933933957e+01 1.753856923385659456e+02
5.941941941941941963e+01 1.943306693504125917e+02
5.949949949949949968e+01 2.003087213973094549e+02
5.957957957957957973e+01 1.920744941942950277e+02
5.965965965965965978e+01 1.713368841529395468e+02
5.973973973973973983e+01 1.421815873597105053e+02
5.981981981981981988e+01 1.097607786868288571e+02
5.989989989989989994e+01 7.882470017763095882e+01
5.997997997997997999e+01 5.266096373609843795e+01
6.006006006006006004e+01 3.272853796936723825e+01
6.014014014014014009e+01 1.892237891160020169e+01
6.022022022022022014e+01 1.017738471385698595e+01
6.030030030030030019e+01 5.092229581614303946e+00
6.038038038038038025e+01 2.370233252027064363e+00
6.046046046046046030e+01 1.026326457879481291e+00
6.054054054054054035e+01 4.134198168517555505e-01
6.062062062062062040e+01 1.549203190954998310e-01
6.070070070070070045e+01 5.400535218895048672e-02
6.078078078078078050e+01 1.751364529058090092e-02
6.086086086086086056e+01 5.283571922995599149e-03
6.094094094094094061e+01 1.482825428298768745e-03
6.102102102102102066e+01 3.871361737306597967e-04
6.110110110110110071e+01 9.402618359517554518e-05
6.118118118118118076e+01 2.124443531061747327e-05
6.126126126126126081e+01 4.465323232321378530e-06
6.134134134134134086e+01 8.731159839921390208e-07
6.142142142142142092e+01 1.588189436723530939e-07
6.150150150150150097e+01 2.687472287371616410e-08
6.158158158158158102e+01 4.230551762853878184e-09
6.166166166166166107e+01 6.195285985945989410e-10
6.174174174174174112e+01 8.439894773433697550e-11
6.182182182182182117e+01 1.069606496657996700e-11
6.190190190190190123e+01 1.261021117305480574e-12
6.198198198198198128e+01 1.383031315765207282e-13
6.206206206206206133e+01 1.411084415928530818e-14
6.214214214214214138e+01 1.339322930579999038e-15
6.222222222222222143e+01 1.182575752328337906e-16
6.230230230230230148e+01 9.713827078334113404e-18
6.238238238238238154e+01 7.446610645155050549e-19
6.246246246246246159e+01 9.016446141928023647e-20
6.254254254254254164e+01 5.432240263161218473e-19
6.262262262262262169e+01 7.245932205110342569e-18
6.270270270270270174e+01 9.048856226541669603e-17
6.278278278278278179e+01 1.051277051400103994e-15
6.286286286286286185e+01 1.136192886784479396e-14
6.294294294294294190e+01 1.142347604414678280e-13
6.302302302302302195e+01 1.068453956786581944e-12
6.310310310310310200e+01 9.296611347975071431e-12
6.318318318318318205e+01 7.524971615530104307e-11
6.326326326326326210e+01 5.666258506254765050e-10
6.334334334334334216e+01 3.969165694982214591e-09
6.342342342342342221e+01 2.586505471321399148e-08
6.350350350350350226e+01 1.567974158474146094e-07
6.358358358358358231e+01 8.842513417657555179e-07
6.366366366366366236e+01 4.638994752655385380e-06
6.374374374374374241e+01 2.264036177358770050e-05
6.382382382382382247e+01 1.027907820709492577e-04
6.390390390390390252e+01 4.341465014585678124e-04
6.398398398398398257e+01 1.705806512317993616e-03
6.406406406406406973e+01 6.234972721232631861e-03
6.414414414414414978e+01 2.120072313511085771e-02
6.422422422422422983e+01 6.706224971822127845e-02
6.430430430430430988e+01 1.973408023487246699e-01
6.438438438438438993e+01 5.402154340880399586e-01
6.446446446446446998e+01 1.375714812474406967e+00
6.454454454454455004e+01 3.259126113589218221e+00
6.462462462462463009e+01 7.182658954639967952e+00
6.470470470470471014e+01 1.472585950986236902e+01
6.478478478478479019e+01 2.808583803129874923e+01
6.486486486486487024e+01 4.983167073944704839e+01
6.494494494494495029e+01 8.224979738519311923e+01
6.502502502502503035e+01 1.262919161059721063e+02
6.510510510510511040e+01 1.803962873352644465e+02
6.518518518518519045e+01 2.397126567500462784e+02
6.526526526526527050e+01 2.963232050663020800e+02
6.534534534534535055e+01 3.407624144451227153e+02
6.542542542542543060e+01 3.645432308360155389e+02
6.550550550550551065e+01 3.627920128553851100e+02
6.558558558558559071e+01 3.358750346640741213e+02
6.566566566566567076e+01 2.892737758577144405e+02
6.574574574574575081e+01 2.317670885592741854e+02
6.582582582582583086e+01 1.727451978297473545e+02
6.590590590590591091e+01 1.197767726106017534e+02
6.598598598598599096e+01 7.726035146113417795e+01
6.606606606606607102e+01 4.636463299063984778e+01
6.614614614614615107e+01 2.589556922307997411e+01
6.622622622622623112e+01 1.348938540943295727e+01
6.630630630630631117e+01 6.631815768670563216e+00
6.638638638638639122e+01 3.274514841622366834e+00
6.646646646646647127e+01 2.067065005215694029e+00
6.654654654654655133e+01 2.345059187906248344e+00
6.662662662662663138e+01 4.013476759366816360e+00
6.670670670670671143e+01 7.397625339938382005e+00
6.678678678678679148e+01 1.306314511044891269e+01
6.686686686686687153e+01 2.157354775973174199e+01
6.694694694694695158e+01 3.317530884630036070e+01
6.702702702702703164e+01 4.746698918750689700e+01
6.710710710710711169e+01 6.318185985186096332e+01
6.718718718718719174e+01 7.823600895672642253e+01
6.726726726726727179e+01 9.012238791019842665e+01
6.734734734734735184e+01 9.657619476065814013e+01
6.742742742742743189e+01 9.627617510703250048e+01
6.750750750750751195e+01 8.928508080982292938e+01
6.758758758758759200e+01 7.702829614986967499e+01
6.766766766766767205e+01 6.182057129378100768e+01
6.774774774774775210e+01 4.615588301976087138e+01
6.782782782782783215e+01 3.205770594920681305e+01
6.790790790790791220e+01 2.071329284040429997e+01
6.798798798798799226e+01 1.245022432596887896e+01
6.806806806806807231e+01 6.961719728636185600e+00
6.814814814814815236e+01 3.621322648058724170e+00
6.822822822822823241e+01 1.752383815984334126e+00
6.830830830830831246e+01 7.888647924759712993e-01
6.838838838838839251e+01 3.303598352526320725e-01
6.846846846846847257e+01 1.287013893592416081e-01
6.854854854854855262e+01 4.664343830195195884e-02
6.862862862862863267e+01 1.572567172481427120e-02
6.870870870870871272e+01 4.932182993146664099e-03
6.878878878878879277e+01 1.439065244250221183e-03
6.886886886886887282e+01 3.906007875611562717e-04
6.894894894894895288e+01 9.862728361763849205e-05
6.902902902902903293e+01 2.316713644787633038e-05
6.910910910910911298e+01 5.062429267310236389e-06
6.918918918918919303e+01 1.029098409896393444e-06
6.926926926926927308e+01 1.946104573205332653e-07
6.934934934934935313e+01 3.423629551879537940e-08
6.942942942942943318e+01 5.602975027686018081e-09
6.950950950950951324e+01 8.530253436736071455e-10
6.958958958958959329e+01 1.208137901427534580e-10
6.966966966966967334e+01 1.591777681186214584e-11
6.974974974974975339e+01 1.951010650049854753e-12
6.982982982982983344e+01 2.224580860249261083e-13
6.990990990990991349e+01 2.359652660314447124e-14
6.998998998998999355e+01 2.328409112731466842e-15
7.007007007007007360e+01 2.137380427161269641e-16
7.015015015015015365e+01 1.825221992239819823e-17
7.023023023023023370e+01 1.449976237744871760e-18
7.031031031031031375e+01 1.071562247139614317e-19
7.039039039039039380e+01 7.366908075223499124e-21
7.047047047047047386e+01 4.711556726385000708e-22
7.055055055055055391e+01 2.803205425687203264e-23
7.063063063063063396e+01 1.551517766251007736e-24
7.071071071071071401e+01 7.988585875079569485e-26
7.079079079079079406e+01 3.826435440841295460e-27
7.087087087087087411e+01 1.705022835063907017e-28
7.095095095095095417e+01 7.067687460984859102e-30
7.103103103103103422e+01 2.725434820163906409e-31
7.111111111111111427e+01 9.776999457897703571e-33
7.119119119119119432e+01 3.262771868738868554e-34
7.127127127127127437e+01 1.012929348437683043e-35
7.135135135135135442e+01 2.925384304372017059e-37
7.143143143143143448e+01 7.859556250921025069e-39
7.151151151151151453e+01 1.964375248622629341e-40
7.159159159159159458e+01 4.567328062545366743e-42
7.167167167167167463e+01 9.878961397276827099e-44
7.175175175175175468e+01 1.987795470629468962e-45
7.183183183183183473e+01 3.720860877787857384e-47
7.191191191191191479e+01 6.479276218367078536e-49
7.199199199199199484e+01 1.049592900776259445e-50
7.207207207207207489e+01 1.581709057334467785e-52
7.215215215215215494e+01 2.217397970305607847e-54
7.223223223223223499e+01 2.891825060308563690e-56
7.231231231231231504e+01 3.508421109669992064e-58
7.239239239239239510e+01 3.959704171176263269e-60
7.247247247247247515e+01 4.157431419481437914e-62
7.255255255255255520e+01 4.060680069099587264e-64
7.263263263263263525e+01 3.689638191263737223e-66
7.271271271271271530e+01 3.118746785305380690e-68
7.279279279279279535e+01 2.452380062935161406e-70
7.287287287287287540e+01 1.793935257464668903e-72
7.295295295295295546e+01 1.220779088209132336e-74
7.303303303303303551e+01 7.728206610543183120e-77
7.311311311311311556e+01 4.551260505525141782e-79
7.319319319319319561e+01 2.493423175274067831e-81
7.327327327327327566e+01 1.270783643289467556e-83
7.335335335335335571e+01 6.025021040610121227e-86
7.343343343343343577e+01 2.657399486373327395e-88
7.351351351351351582e+01 1.090351317614664757e-90
7.359359359359359587e+01 4.161859223048680939e-93
7.367367367367367592e+01 1.477813556705425449e-95
7.375375375375375597e+01 4.881611728651199668e-98
7.383383383383383602e+01 1.500092875447765806e-100
7.391391391391391608e+01 4.288292399198747843e-103
7.399399399399399613e+01 1.140412474622750804e-105
7.407407407407407618e+01 2.821310307004105638e-108
7.415415415415415623e+01 6.493084859717385187e-111
7.423423423423423628e+01 1.390153089850501049e-113
7.431431431431431633e+01 2.768761242526618598e-116
7.439439439439439639e+01 5.130027720669465675e-119
7.447447447447447644e+01 8.842299967739503114e-122
7.455455455455455649e+01 1.417823280354308971e-124
7.463463463463463654e+01 2.114902202353158051e-127
7.471471471471471659e+01 2.934741159161398375e-130
7.479479479479479664e+01 3.788442008597190385e-133
7.487487487487487670e+01 4.549491013995563504e-136
7.495495495495495675e+01 5.082487352603502690e-139
7.503503503503503680e+01 5.282033226627033629e-142
7.511511511511511685e+01 5.106663934074510124e-145
7.519519519519519690e+01 4.592876363591028623e-148
7.527527527527527695e+01 3.842762628305251847e-151
7.535535535535535701e+01 2.990981241805529892e-154
7.543543543543543706e+01 2.165684296127772745e-157
7.551551551551551711e+01 1.458773725896071349e-160
7.559559559559559716e+01 9.140964977185426051e-164
7.567567567567567721e+01 5.328530850416609846e-167
7.575575575575575726e+01 2.889576863261421705e-170
7.583583583583583732e+01 1.457714068340307226e-173
7.591591591591591737e+01 6.841034273261568499e-177
7.599599599599599742e+01 2.986637504762222151e-180
7.607607607607607747e+01 1.212982652555578796e-183
7.615615615615615752e+01 4.582874795292222303e-187
7.623623623623623757e+01 1.610766994766745910e-190
7.631631631631631763e+01 5.266702402946061057e-194
7.639639639639639768e+01 1.601976581831652634e-197
7.647647647647647773e+01 4.532991183719161244e-201
7.655655655655655778e+01 1.193232057935398731e-204
7.663663663663663783e+01 2.921973536885865682e-208
7.671671671671671788e+01 6.656393244104977913e-212
7.679679679679679793e+01 1.410629594870835088e-215
7.687687687687687799e+01 2.780983026221257244e-219
7.695695695695695804e+01 5.100291665667598078e-223
7.703703703703703809e+01 8.701678107501579389e-227
7.711711711711711814e+01 1.381091150316297087e-230
7.719719719719719819e+01 2.039167957350175650e-234
7.727727727727727824e+01 2.800883087084491412e-238
7.735735735735735830e+01 3.578889513879100780e-242
7.743743743743743835e+01 4.254151269183623729e-246
7.751751751751751840e+01 4.704233745069074374e-250
7.759759759759759845e+01 4.839229116308122428e-254
7.767767767767767850e+01 4.631000237997472324e-258
7.775775775775775855e+01 4.122728630405820365e-262
7.783783783783783861e+01 3.414334153899021169e-266
7.791791791791791866e+01 2.630501917147464262e-270
7.799799799799799871e+01 1.885309040619877530e-274
7.807807807807807876e+01 1.257007314151866708e-278
7.815815815815815881e+01 7.796584434337706012e-283
7.823823823823823886e+01 4.498650927974644205e-287
7.831831831831831892e+01 2.414746424012398985e-291
7.839839839839839897e+01 1.205791158017008105e-295
7.847847847847847902e+01 5.601237469355479770e-300
7.855855855855855907e+01 2.420511793404060665e-304
7.863863863863863912e+01 9.730647670000855413e-309
7.871871871871871917e+01 3.639046623713631942e-313
7.879879879879879923e+01 1.266043711533840111e-317
7.887887887887887928e+01 0.000000000000000000e+00
7.895895895895895933e+01 0.000000000000000000e+00
7.903903903903903938e+01 0.000000000000000000e+00
7.911911911911911943e+01 0.000000000000000000e+00
7.919919919919919948e+01 0.000000000000000000e+00
7.927927927927927954e+01 0.000000000000000000e+00
7.935935935935935959e+01 0.000000000000000000e+00
7.943943943943943964e+01 0.000000000000000000e+00
7.951951951951951969e+01 0.000000000000000000e+00
7.959959959959959974e+01 0.000000000000000000e+00
7.967967967967967979e+01 0.000000000000000000e+00
7.975975975975975985e+01 0.000000000000000000e+00
7.983983983983983990e+01 0.000000000000000000e+00
7.991991991991991995e+01 0.000000000000000000e+00
8.000000000000000000e+01 0.000000000000000000e+00
